...................
----------------------------------------------------------------------
Ran 19 tests in 0.430s

OK
Name             Stmts   Miss Branch BrPart  Cover   Missing
------------------------------------------------------------
Collatz.py          49      0     26      0   100%
TestCollatz.py      83      0      0      0   100%
------------------------------------------------------------
TOTAL              132      0     26      0   100%
