.....................
----------------------------------------------------------------------
Ran 21 tests in 0.144s

OK
Name             Stmts   Miss Branch BrPart  Cover   Missing
------------------------------------------------------------
Collatz.py          42      0     12      0   100%
TestCollatz.py      87      0      0      0   100%
------------------------------------------------------------
TOTAL              129      0     12      0   100%

